{
	"frames": {
		"Recurso 10@2x.png": {
			"frame": {
				"x": 1,
				"y": 1,
				"w": 173,
				"h": 197
			},
			"rotated": false,
			"trimmed": false,
			"spriteSourceSize": {
				"x": 0,
				"y": 0,
				"w": 173,
				"h": 197
			},
			"sourceSize": {
				"w": 173,
				"h": 197
			}
		},
		"Recurso 1@2x.png": {
			"frame": {
				"x": 176,
				"y": 1,
				"w": 173,
				"h": 196
			},
			"rotated": false,
			"trimmed": false,
			"spriteSourceSize": {
				"x": 0,
				"y": 0,
				"w": 173,
				"h": 196
			},
			"sourceSize": {
				"w": 173,
				"h": 196
			}
		},
		"Recurso 2@2x.png": {
			"frame": {
				"x": 351,
				"y": 1,
				"w": 170,
				"h": 198
			},
			"rotated": false,
			"trimmed": false,
			"spriteSourceSize": {
				"x": 0,
				"y": 0,
				"w": 170,
				"h": 198
			},
			"sourceSize": {
				"w": 170,
				"h": 198
			}
		},
		"Recurso 3@2x.png": {
			"frame": {
				"x": 523,
				"y": 1,
				"w": 161,
				"h": 199
			},
			"rotated": false,
			"trimmed": false,
			"spriteSourceSize": {
				"x": 0,
				"y": 0,
				"w": 161,
				"h": 199
			},
			"sourceSize": {
				"w": 161,
				"h": 199
			}
		},
		"Recurso 4@2x.png": {
			"frame": {
				"x": 686,
				"y": 1,
				"w": 159,
				"h": 198
			},
			"rotated": false,
			"trimmed": false,
			"spriteSourceSize": {
				"x": 0,
				"y": 0,
				"w": 159,
				"h": 198
			},
			"sourceSize": {
				"w": 159,
				"h": 198
			}
		},
		"Recurso 5@2x.png": {
			"frame": {
				"x": 847,
				"y": 1,
				"w": 156,
				"h": 198
			},
			"rotated": false,
			"trimmed": false,
			"spriteSourceSize": {
				"x": 0,
				"y": 0,
				"w": 156,
				"h": 198
			},
			"sourceSize": {
				"w": 156,
				"h": 198
			}
		},
		"Recurso 6@2x.png": {
			"frame": {
				"x": 1005,
				"y": 1,
				"w": 173,
				"h": 196
			},
			"rotated": false,
			"trimmed": false,
			"spriteSourceSize": {
				"x": 0,
				"y": 0,
				"w": 173,
				"h": 196
			},
			"sourceSize": {
				"w": 173,
				"h": 196
			}
		},
		"Recurso 7@2x.png": {
			"frame": {
				"x": 1180,
				"y": 1,
				"w": 179,
				"h": 203
			},
			"rotated": false,
			"trimmed": false,
			"spriteSourceSize": {
				"x": 0,
				"y": 0,
				"w": 179,
				"h": 203
			},
			"sourceSize": {
				"w": 179,
				"h": 203
			}
		},
		"Recurso 8@2x.png": {
			"frame": {
				"x": 1361,
				"y": 1,
				"w": 177,
				"h": 204
			},
			"rotated": false,
			"trimmed": false,
			"spriteSourceSize": {
				"x": 0,
				"y": 0,
				"w": 177,
				"h": 204
			},
			"sourceSize": {
				"w": 177,
				"h": 204
			}
		},
		"Recurso 9@2x.png": {
			"frame": {
				"x": 1540,
				"y": 1,
				"w": 173,
				"h": 201
			},
			"rotated": false,
			"trimmed": false,
			"spriteSourceSize": {
				"x": 0,
				"y": 0,
				"w": 173,
				"h": 201
			},
			"sourceSize": {
				"w": 173,
				"h": 201
			}
		}
	},
	"meta": {
		"app": "http://www.codeandweb.com/texturepacker",
		"version": "1.0",
		"image": "spritesheet.png",
		"format": "RGBA8888",
		"size": {
			"w": 1714,
			"h": 206
		},
		"scale": "1"
	}
}